Laboratório/LAB3Final/teste/lab3/lab3/sim/results/alu.transcript
Reading /opt/altera/13.0sp1/modelsim_ase/tcl/vsim/pref.tcl 

# 10.1d

proc start {m} {vsim work.$m}
set MODULE ALUTestbench
# ALUTestbench
start $MODULE
# vsim work.ALUTestbench 
# Loading work.ALUTestbench
# Loading work.ALUdec
# Loading work.ALU
add wave $MODULE/*
add wave $MODULE/DUT1/*
add wave $MODULE/DUT2/*
run 100us
# PASS: opcode 000000, funct 100001
# 	A: 0x92153524, B: 0xffffde81, DUTout: 0x921513a5, REFout: 0x921513a5
# PASS: opcode 000000, funct 100011
# 	A: 0x92153524, B: 0xffffde81, DUTout: 0x921556a3, REFout: 0x921556a3
# PASS: opcode 000000, funct 101010
# 	A: 0x92153524, B: 0xffffde81, DUTout: 0x00000001, REFout: 0x00000001
# PASS: opcode 000000, funct 101011
# 	A: 0x92153524, B: 0xffffde81, DUTout: 0x00000001, REFout: 0x00000001
# PASS: opcode 000000, funct 100100
# 	A: 0x92153524, B: 0xffffde81, DUTout: 0x92151400, REFout: 0x92151400
# PASS: opcode 000000, funct 100101
# 	A: 0x92153524, B: 0xffffde81, DUTout: 0xffffffa5, REFout: 0xffffffa5
# PASS: opcode 000000, funct 100110
# 	A: 0x92153524, B: 0xffffde81, DUTout: 0x6deaeba5, REFout: 0x6deaeba5
# PASS: opcode 001111, funct 100110
# 	A: 0x92153524, B: 0xffffde81, DUTout: 0xde810000, REFout: 0xde810000
# PASS: opcode 000000, funct 000000
# 	A: 0x92153524, B: 0xffffde81, DUTout: 0x00000000, REFout: 0x00000000
# PASS: opcode 000000, funct 000010
# 	A: 0x92153524, B: 0xffffde81, DUTout: 0x00000000, REFout: 0x00000000
# PASS: opcode 000000, funct 000011
# 	A: 0x92153524, B: 0xffffde81, DUTout: 0xfffffde8, REFout: 0xfffffde8
# PASS: opcode 000000, funct 100111
# 	A: 0x92153524, B: 0xffffde81, DUTout: 0x0000005a, REFout: 0x0000005a
# PASS: opcode 100000, funct 100111
# 	A: 0x92153524, B: 0xffffde81, DUTout: 0x921513a5, REFout: 0x921513a5
# PASS: opcode 100001, funct 100111
# 	A: 0x92153524, B: 0xffffde81, DUTout: 0x921513a5, REFout: 0x921513a5
# PASS: opcode 100011, funct 100111
# 	A: 0x92153524, B: 0xffffde81, DUTout: 0x921513a5, REFout: 0x921513a5
# PASS: opcode 100100, funct 100111
# 	A: 0x92153524, B: 0xffffde81, DUTout: 0x921513a5, REFout: 0x921513a5
# PASS: opcode 100101, funct 100111
# 	A: 0x92153524, B: 0xffffde81, DUTout: 0x921513a5, REFout: 0x921513a5
# PASS: opcode 101000, funct 100111
# 	A: 0x92153524, B: 0xffffde81, DUTout: 0x921513a5, REFout: 0x921513a5
# PASS: opcode 101001, funct 100111
# 	A: 0x92153524, B: 0xffffde81, DUTout: 0x921513a5, REFout: 0x921513a5
# PASS: opcode 101011, funct 100111
# 	A: 0x92153524, B: 0xffffde81, DUTout: 0x921513a5, REFout: 0x921513a5
# PASS: opcode 000000, funct 100001
# 	A: 0xb1f05663, B: 0xfffffb0d, DUTout: 0xb1f05170, REFout: 0xb1f05170
# PASS: opcode 000000, funct 100011
# 	A: 0xb1f05663, B: 0xfffffb0d, DUTout: 0xb1f05b56, REFout: 0xb1f05b56
# PASS: opcode 000000, funct 101010
# 	A: 0xb1f05663, B: 0xfffffb0d, DUTout: 0x00000001, REFout: 0x00000001
# PASS: opcode 000000, funct 101011
# 	A: 0xb1f05663, B: 0xfffffb0d, DUTout: 0x00000001, REFout: 0x00000001
# PASS: opcode 000000, funct 100100
# 	A: 0xb1f05663, B: 0xfffffb0d, DUTout: 0xb1f05201, REFout: 0xb1f05201
# PASS: opcode 000000, funct 100101
# 	A: 0xb1f05663, B: 0xfffffb0d, DUTout: 0xffffff6f, REFout: 0xffffff6f
# PASS: opcode 000000, funct 100110
# 	A: 0xb1f05663, B: 0xfffffb0d, DUTout: 0x4e0fad6e, REFout: 0x4e0fad6e
# PASS: opcode 001111, funct 100110
# 	A: 0xb1f05663, B: 0xfffffb0d, DUTout: 0xfb0d0000, REFout: 0xfb0d0000
# PASS: opcode 000000, funct 000000
# 	A: 0xb1f05663, B: 0xfffffb0d, DUTout: 0x00000000, REFout: 0x00000000
# PASS: opcode 000000, funct 000010
# 	A: 0xb1f05663, B: 0xfffffb0d, DUTout: 0x00000000, REFout: 0x00000000
# PASS: opcode 000000, funct 000011
# 	A: 0xb1f05663, B: 0xfffffb0d, DUTout: 0xffffff61, REFout: 0xffffff61
# PASS: opcode 000000, funct 100111
# 	A: 0xb1f05663, B: 0xfffffb0d, DUTout: 0x00000090, REFout: 0x00000090
# PASS: opcode 100000, funct 100111
# 	A: 0xb1f05663, B: 0xfffffb0d, DUTout: 0xb1f05170, REFout: 0xb1f05170
# PASS: opcode 100001, funct 100111
# 	A: 0xb1f05663, B: 0xfffffb0d, DUTout: 0xb1f05170, REFout: 0xb1f05170
# PASS: opcode 100011, funct 100111
# 	A: 0xb1f05663, B: 0xfffffb0d, DUTout: 0xb1f05170, REFout: 0xb1f05170
# PASS: opcode 100100, funct 100111
# 	A: 0xb1f05663, B: 0xfffffb0d, DUTout: 0xb1f05170, REFout: 0xb1f05170
# PASS: opcode 100101, funct 100111
# 	A: 0xb1f05663, B: 0xfffffb0d, DUTout: 0xb1f05170, REFout: 0xb1f05170
# PASS: opcode 101000, funct 100111
# 	A: 0xb1f05663, B: 0xfffffb0d, DUTout: 0xb1f05170, REFout: 0xb1f05170
# PASS: opcode 101001, funct 100111
# 	A: 0xb1f05663, B: 0xfffffb0d, DUTout: 0xb1f05170, REFout: 0xb1f05170
# PASS: opcode 101011, funct 100111
# 	A: 0xb1f05663, B: 0xfffffb0d, DUTout: 0xb1f05170, REFout: 0xb1f05170
# PASS: opcode 000000, funct 100001
# 	A: 0xb2c28465, B: 0xffffd212, DUTout: 0xb2c25677, REFout: 0xb2c25677
# PASS: opcode 000000, funct 100011
# 	A: 0xb2c28465, B: 0xffffd212, DUTout: 0xb2c2b253, REFout: 0xb2c2b253
# PASS: opcode 000000, funct 101010
# 	A: 0xb2c28465, B: 0xffffd212, DUTout: 0x00000001, REFout: 0x00000001
# PASS: opcode 000000, funct 101011
# 	A: 0xb2c28465, B: 0xffffd212, DUTout: 0x00000001, REFout: 0x00000001
# PASS: opcode 000000, funct 100100
# 	A: 0xb2c28465, B: 0xffffd212, DUTout: 0xb2c28000, REFout: 0xb2c28000
# PASS: opcode 000000, funct 100101
# 	A: 0xb2c28465, B: 0xffffd212, DUTout: 0xffffd677, REFout: 0xffffd677
# PASS: opcode 000000, funct 100110
# 	A: 0xb2c28465, B: 0xffffd212, DUTout: 0x4d3d5677, REFout: 0x4d3d5677
# PASS: opcode 001111, funct 100110
# 	A: 0xb2c28465, B: 0xffffd212, DUTout: 0xd2120000, REFout: 0xd2120000
# PASS: opcode 000000, funct 000000
# 	A: 0xb2c28465, B: 0xffffd212, DUTout: 0x00000000, REFout: 0x00000000
# PASS: opcode 000000, funct 000010
# 	A: 0xb2c28465, B: 0xffffd212, DUTout: 0x00000000, REFout: 0x00000000
# PASS: opcode 000000, funct 000011
# 	A: 0xb2c28465, B: 0xffffd212, DUTout: 0xfffffe90, REFout: 0xfffffe90
# PASS: opcode 000000, funct 100111
# 	A: 0xb2c28465, B: 0xffffd212, DUTout: 0x00002988, REFout: 0x00002988
# PASS: opcode 100000, funct 100111
# 	A: 0xb2c28465, B: 0xffffd212, DUTout: 0xb2c25677, REFout: 0xb2c25677
# PASS: opcode 100001, funct 100111
# 	A: 0xb2c28465, B: 0xffffd212, DUTout: 0xb2c25677, REFout: 0xb2c25677
# PASS: opcode 100011, funct 100111
# 	A: 0xb2c28465, B: 0xffffd212, DUTout: 0xb2c25677, REFout: 0xb2c25677
# PASS: opcode 100100, funct 100111
# 	A: 0xb2c28465, B: 0xffffd212, DUTout: 0xb2c25677, REFout: 0xb2c25677
# PASS: opcode 100101, funct 100111
# 	A: 0xb2c28465, B: 0xffffd212, DUTout: 0xb2c25677, REFout: 0xb2c25677
# PASS: opcode 101000, funct 100111
# 	A: 0xb2c28465, B: 0xffffd212, DUTout: 0xb2c25677, REFout: 0xb2c25677
# PASS: opcode 101001, funct 100111
# 	A: 0xb2c28465, B: 0xffffd212, DUTout: 0xb2c25677, REFout: 0xb2c25677
# PASS: opcode 101011, funct 100111
# 	A: 0xb2c28465, B: 0xffffd212, DUTout: 0xb2c25677, REFout: 0xb2c25677
# PASS: opcode 000000, funct 100001
# 	A: 0x86d7cd0d, B: 0xfffff176, DUTout: 0x86d7be83, REFout: 0x86d7be83
# PASS: opcode 000000, funct 100011
# 	A: 0x86d7cd0d, B: 0xfffff176, DUTout: 0x86d7db97, REFout: 0x86d7db97
# PASS: opcode 000000, funct 101010
# 	A: 0x86d7cd0d, B: 0xfffff176, DUTout: 0x00000001, REFout: 0x00000001
# PASS: opcode 000000, funct 101011
# 	A: 0x86d7cd0d, B: 0xfffff176, DUTout: 0x00000001, REFout: 0x00000001
# PASS: opcode 000000, funct 100100
# 	A: 0x86d7cd0d, B: 0xfffff176, DUTout: 0x86d7c104, REFout: 0x86d7c104
# PASS: opcode 000000, funct 100101
# 	A: 0x86d7cd0d, B: 0xfffff176, DUTout: 0xfffffd7f, REFout: 0xfffffd7f
# PASS: opcode 000000, funct 100110
# 	A: 0x86d7cd0d, B: 0xfffff176, DUTout: 0x79283c7b, REFout: 0x79283c7b
# PASS: opcode 001111, funct 100110
# 	A: 0x86d7cd0d, B: 0xfffff176, DUTout: 0xf1760000, REFout: 0xf1760000
# PASS: opcode 000000, funct 000000
# 	A: 0x86d7cd0d, B: 0xfffff176, DUTout: 0x00000000, REFout: 0x00000000
# PASS: opcode 000000, funct 000010
# 	A: 0x86d7cd0d, B: 0xfffff176, DUTout: 0x00000000, REFout: 0x00000000
# PASS: opcode 000000, funct 000011
# 	A: 0x86d7cd0d, B: 0xfffff176, DUTout: 0xffffffff, REFout: 0xffffffff
# PASS: opcode 000000, funct 100111
# 	A: 0x86d7cd0d, B: 0xfffff176, DUTout: 0x00000280, REFout: 0x00000280
# PASS: opcode 100000, funct 100111
# 	A: 0x86d7cd0d, B: 0xfffff176, DUTout: 0x86d7be83, REFout: 0x86d7be83
# PASS: opcode 100001, funct 100111
# 	A: 0x86d7cd0d, B: 0xfffff176, DUTout: 0x86d7be83, REFout: 0x86d7be83
# PASS: opcode 100011, funct 100111
# 	A: 0x86d7cd0d, B: 0xfffff176, DUTout: 0x86d7be83, REFout: 0x86d7be83
# PASS: opcode 100100, funct 100111
# 	A: 0x86d7cd0d, B: 0xfffff176, DUTout: 0x86d7be83, REFout: 0x86d7be83
# PASS: opcode 100101, funct 100111
# 	A: 0x86d7cd0d, B: 0xfffff176, DUTout: 0x86d7be83, REFout: 0x86d7be83
# PASS: opcode 101000, funct 100111
# 	A: 0x86d7cd0d, B: 0xfffff176, DUTout: 0x86d7be83, REFout: 0x86d7be83
# PASS: opcode 101001, funct 100111
# 	A: 0x86d7cd0d, B: 0xfffff176, DUTout: 0x86d7be83, REFout: 0x86d7be83
# PASS: opcode 101011, funct 100111
# 	A: 0x86d7cd0d, B: 0xfffff176, DUTout: 0x86d7be83, REFout: 0x86d7be83
# PASS: opcode 000000, funct 100001
# 	A: 0xf6d457ed, B: 0xfffff78c, DUTout: 0xf6d44f79, REFout: 0xf6d44f79
# PASS: opcode 000000, funct 100011
# 	A: 0xf6d457ed, B: 0xfffff78c, DUTout: 0xf6d46061, REFout: 0xf6d46061
# PASS: opcode 000000, funct 101010
# 	A: 0xf6d457ed, B: 0xfffff78c, DUTout: 0x00000001, REFout: 0x00000001
# PASS: opcode 000000, funct 101011
# 	A: 0xf6d457ed, B: 0xfffff78c, DUTout: 0x00000001, REFout: 0x00000001
# PASS: opcode 000000, funct 100100
# 	A: 0xf6d457ed, B: 0xfffff78c, DUTout: 0xf6d4578c, REFout: 0xf6d4578c
# PASS: opcode 000000, funct 100101
# 	A: 0xf6d457ed, B: 0xfffff78c, DUTout: 0xfffff7ed, REFout: 0xfffff7ed
# PASS: opcode 000000, funct 100110
# 	A: 0xf6d457ed, B: 0xfffff78c, DUTout: 0x092ba061, REFout: 0x092ba061
# PASS: opcode 001111, funct 100110
# 	A: 0xf6d457ed, B: 0xfffff78c, DUTout: 0xf78c0000, REFout: 0xf78c0000
# PASS: opcode 000000, funct 000000
# 	A: 0xf6d457ed, B: 0xfffff78c, DUTout: 0x00000000, REFout: 0x00000000
# PASS: opcode 000000, funct 000010
# 	A: 0xf6d457ed, B: 0xfffff78c, DUTout: 0x00000000, REFout: 0x00000000
# PASS: opcode 000000, funct 000011
# 	A: 0xf6d457ed, B: 0xfffff78c, DUTout: 0xffffffff, REFout: 0xffffffff
# PASS: opcode 000000, funct 100111
# 	A: 0xf6d457ed, B: 0xfffff78c, DUTout: 0x00000812, REFout: 0x00000812
# PASS: opcode 100000, funct 100111
# 	A: 0xf6d457ed, B: 0xfffff78c, DUTout: 0xf6d44f79, REFout: 0xf6d44f79
# PASS: opcode 100001, funct 100111
# 	A: 0xf6d457ed, B: 0xfffff78c, DUTout: 0xf6d44f79, REFout: 0xf6d44f79
# PASS: opcode 100011, funct 100111
# 	A: 0xf6d457ed, B: 0xfffff78c, DUTout: 0xf6d44f79, REFout: 0xf6d44f79
# PASS: opcode 100100, funct 100111
# 	A: 0xf6d457ed, B: 0xfffff78c, DUTout: 0xf6d44f79, REFout: 0xf6d44f79
# PASS: opcode 100101, funct 100111
# 	A: 0xf6d457ed, B: 0xfffff78c, DUTout: 0xf6d44f79, REFout: 0xf6d44f79
# PASS: opcode 101000, funct 100111
# 	A: 0xf6d457ed, B: 0xfffff78c, DUTout: 0xf6d44f79, REFout: 0xf6d44f79
# PASS: opcode 101001, funct 100111
# 	A: 0xf6d457ed, B: 0xfffff78c, DUTout: 0xf6d44f79, REFout: 0xf6d44f79
# PASS: opcode 101011, funct 100111
# 	A: 0xf6d457ed, B: 0xfffff78c, DUTout: 0xf6d44f79, REFout: 0xf6d44f79
# PASS: opcode 000000, funct 100001
# 	A: 0xe33724c6, B: 0xffff84c5, DUTout: 0xe336a98b, REFout: 0xe336a98b
# PASS: opcode 000000, funct 100011
# 	A: 0xe33724c6, B: 0xffff84c5, DUTout: 0xe337a001, REFout: 0xe337a001
# PASS: opcode 000000, funct 101010
# 	A: 0xe33724c6, B: 0xffff84c5, DUTout: 0x00000001, REFout: 0x00000001
# PASS: opcode 000000, funct 101011
# 	A: 0xe33724c6, B: 0xffff84c5, DUTout: 0x00000001, REFout: 0x00000001
# PASS: opcode 000000, funct 100100
# 	A: 0xe33724c6, B: 0xffff84c5, DUTout: 0xe33704c4, REFout: 0xe33704c4
# PASS: opcode 000000, funct 100101
# 	A: 0xe33724c6, B: 0xffff84c5, DUTout: 0xffffa4c7, REFout: 0xffffa4c7
# PASS: opcode 000000, funct 100110
# 	A: 0xe33724c6, B: 0xffff84c5, DUTout: 0x1cc8a003, REFout: 0x1cc8a003
# PASS: opcode 001111, funct 100110
# 	A: 0xe33724c6, B: 0xffff84c5, DUTout: 0x84c50000, REFout: 0x84c50000
# PASS: opcode 000000, funct 000000
# 	A: 0xe33724c6, B: 0xffff84c5, DUTout: 0x00000000, REFout: 0x00000000
# PASS: opcode 000000, funct 000010
# 	A: 0xe33724c6, B: 0xffff84c5, DUTout: 0x00000000, REFout: 0x00000000
# PASS: opcode 000000, funct 000011
# 	A: 0xe33724c6, B: 0xffff84c5, DUTout: 0xfffffe13, REFout: 0xfffffe13
# PASS: opcode 000000, funct 100111
# 	A: 0xe33724c6, B: 0xffff84c5, DUTout: 0x00005b38, REFout: 0x00005b38
# PASS: opcode 100000, funct 100111
# 	A: 0xe33724c6, B: 0xffff84c5, DUTout: 0xe336a98b, REFout: 0xe336a98b
# PASS: opcode 100001, funct 100111
# 	A: 0xe33724c6, B: 0xffff84c5, DUTout: 0xe336a98b, REFout: 0xe336a98b
# PASS: opcode 100011, funct 100111
# 	A: 0xe33724c6, B: 0xffff84c5, DUTout: 0xe336a98b, REFout: 0xe336a98b
# PASS: opcode 100100, funct 100111
# 	A: 0xe33724c6, B: 0xffff84c5, DUTout: 0xe336a98b, REFout: 0xe336a98b
# PASS: opcode 100101, funct 100111
# 	A: 0xe33724c6, B: 0xffff84c5, DUTout: 0xe336a98b, REFout: 0xe336a98b
# PASS: opcode 101000, funct 100111
# 	A: 0xe33724c6, B: 0xffff84c5, DUTout: 0xe336a98b, REFout: 0xe336a98b
# PASS: opcode 101001, funct 100111
# 	A: 0xe33724c6, B: 0xffff84c5, DUTout: 0xe336a98b, REFout: 0xe336a98b
# PASS: opcode 101011, funct 100111
# 	A: 0xe33724c6, B: 0xffff84c5, DUTout: 0xe336a98b, REFout: 0xe336a98b
# PASS: opcode 000000, funct 100001
# 	A: 0xf2aff7e5, B: 0xfffff277, DUTout: 0xf2afea5c, REFout: 0xf2afea5c
# PASS: opcode 000000, funct 100011
# 	A: 0xf2aff7e5, B: 0xfffff277, DUTout: 0xf2b0056e, REFout: 0xf2b0056e
# PASS: opcode 000000, funct 101010
# 	A: 0xf2aff7e5, B: 0xfffff277, DUTout: 0x00000001, REFout: 0x00000001
# PASS: opcode 000000, funct 101011
# 	A: 0xf2aff7e5, B: 0xfffff277, DUTout: 0x00000001, REFout: 0x00000001
# PASS: opcode 000000, funct 100100
# 	A: 0xf2aff7e5, B: 0xfffff277, DUTout: 0xf2aff265, REFout: 0xf2aff265
# PASS: opcode 000000, funct 100101
# 	A: 0xf2aff7e5, B: 0xfffff277, DUTout: 0xfffff7f7, REFout: 0xfffff7f7
# PASS: opcode 000000, funct 100110
# 	A: 0xf2aff7e5, B: 0xfffff277, DUTout: 0x0d500592, REFout: 0x0d500592
# PASS: opcode 001111, funct 100110
# 	A: 0xf2aff7e5, B: 0xfffff277, DUTout: 0xf2770000, REFout: 0xf2770000
# PASS: opcode 000000, funct 000000
# 	A: 0xf2aff7e5, B: 0xfffff277, DUTout: 0x00000000, REFout: 0x00000000
# PASS: opcode 000000, funct 000010
# 	A: 0xf2aff7e5, B: 0xfffff277, DUTout: 0x00000000, REFout: 0x00000000
# PASS: opcode 000000, funct 000011
# 	A: 0xf2aff7e5, B: 0xfffff277, DUTout: 0xffffff93, REFout: 0xffffff93
# PASS: opcode 000000, funct 100111
# 	A: 0xf2aff7e5, B: 0xfffff277, DUTout: 0x00000808, REFout: 0x00000808
# PASS: opcode 100000, funct 100111
# 	A: 0xf2aff7e5, B: 0xfffff277, DUTout: 0xf2afea5c, REFout: 0xf2afea5c
# PASS: opcode 100001, funct 100111
# 	A: 0xf2aff7e5, B: 0xfffff277, DUTout: 0xf2afea5c, REFout: 0xf2afea5c
# PASS: opcode 100011, funct 100111
# 	A: 0xf2aff7e5, B: 0xfffff277, DUTout: 0xf2afea5c, REFout: 0xf2afea5c
# PASS: opcode 100100, funct 100111
# 	A: 0xf2aff7e5, B: 0xfffff277, DUTout: 0xf2afea5c, REFout: 0xf2afea5c
# PASS: opcode 100101, funct 100111
# 	A: 0xf2aff7e5, B: 0xfffff277, DUTout: 0xf2afea5c, REFout: 0xf2afea5c
# PASS: opcode 101000, funct 100111
# 	A: 0xf2aff7e5, B: 0xfffff277, DUTout: 0xf2afea5c, REFout: 0xf2afea5c
# PASS: opcode 101001, funct 100111
# 	A: 0xf2aff7e5, B: 0xfffff277, DUTout: 0xf2afea5c, REFout: 0xf2afea5c
# PASS: opcode 101011, funct 100111
# 	A: 0xf2aff7e5, B: 0xfffff277, DUTout: 0xf2afea5c, REFout: 0xf2afea5c
# PASS: opcode 000000, funct 100001
# 	A: 0xc7ecdb8f, B: 0xffffe9f2, DUTout: 0xc7ecc581, REFout: 0xc7ecc581
# PASS: opcode 000000, funct 100011
# 	A: 0xc7ecdb8f, B: 0xffffe9f2, DUTout: 0xc7ecf19d, REFout: 0xc7ecf19d
# PASS: opcode 000000, funct 101010
# 	A: 0xc7ecdb8f, B: 0xffffe9f2, DUTout: 0x00000001, REFout: 0x00000001
# PASS: opcode 000000, funct 101011
# 	A: 0xc7ecdb8f, B: 0xffffe9f2, DUTout: 0x00000001, REFout: 0x00000001
# PASS: opcode 000000, funct 100100
# 	A: 0xc7ecdb8f, B: 0xffffe9f2, DUTout: 0xc7ecc982, REFout: 0xc7ecc982
# PASS: opcode 000000, funct 100101
# 	A: 0xc7ecdb8f, B: 0xffffe9f2, DUTout: 0xfffffbff, REFout: 0xfffffbff
# PASS: opcode 000000, funct 100110
# 	A: 0xc7ecdb8f, B: 0xffffe9f2, DUTout: 0x3813327d, REFout: 0x3813327d
# PASS: opcode 001111, funct 100110
# 	A: 0xc7ecdb8f, B: 0xffffe9f2, DUTout: 0xe9f20000, REFout: 0xe9f20000
# PASS: opcode 000000, funct 000000
# 	A: 0xc7ecdb8f, B: 0xffffe9f2, DUTout: 0x00000000, REFout: 0x00000000
# PASS: opcode 000000, funct 000010
# 	A: 0xc7ecdb8f, B: 0xffffe9f2, DUTout: 0x00000000, REFout: 0x00000000
# PASS: opcode 000000, funct 000011
# 	A: 0xc7ecdb8f, B: 0xffffe9f2, DUTout: 0xffffffff, REFout: 0xffffffff
# PASS: opcode 000000, funct 100111
# 	A: 0xc7ecdb8f, B: 0xffffe9f2, DUTout: 0x00000400, REFout: 0x00000400
# PASS: opcode 100000, funct 100111
# 	A: 0xc7ecdb8f, B: 0xffffe9f2, DUTout: 0xc7ecc581, REFout: 0xc7ecc581
# PASS: opcode 100001, funct 100111
# 	A: 0xc7ecdb8f, B: 0xffffe9f2, DUTout: 0xc7ecc581, REFout: 0xc7ecc581
# PASS: opcode 100011, funct 100111
# 	A: 0xc7ecdb8f, B: 0xffffe9f2, DUTout: 0xc7ecc581, REFout: 0xc7ecc581
# PASS: opcode 100100, funct 100111
# 	A: 0xc7ecdb8f, B: 0xffffe9f2, DUTout: 0xc7ecc581, REFout: 0xc7ecc581
# PASS: opcode 100101, funct 100111
# 	A: 0xc7ecdb8f, B: 0xffffe9f2, DUTout: 0xc7ecc581, REFout: 0xc7ecc581
# PASS: opcode 101000, funct 100111
# 	A: 0xc7ecdb8f, B: 0xffffe9f2, DUTout: 0xc7ecc581, REFout: 0xc7ecc581
# PASS: opcode 101001, funct 100111
# 	A: 0xc7ecdb8f, B: 0xffffe9f2, DUTout: 0xc7ecc581, REFout: 0xc7ecc581
# PASS: opcode 101011, funct 100111
# 	A: 0xc7ecdb8f, B: 0xffffe9f2, DUTout: 0xc7ecc581, REFout: 0xc7ecc581
# PASS: opcode 000000, funct 100001
# 	A: 0xf4007ae8, B: 0xffffcec5, DUTout: 0xf40049ad, REFout: 0xf40049ad
# PASS: opcode 000000, funct 100011
# 	A: 0xf4007ae8, B: 0xffffcec5, DUTout: 0xf400ac23, REFout: 0xf400ac23
# PASS: opcode 000000, funct 101010
# 	A: 0xf4007ae8, B: 0xffffcec5, DUTout: 0x00000001, REFout: 0x00000001
# PASS: opcode 000000, funct 101011
# 	A: 0xf4007ae8, B: 0xffffcec5, DUTout: 0x00000001, REFout: 0x00000001
# PASS: opcode 000000, funct 100100
# 	A: 0xf4007ae8, B: 0xffffcec5, DUTout: 0xf4004ac0, REFout: 0xf4004ac0
# PASS: opcode 000000, funct 100101
# 	A: 0xf4007ae8, B: 0xffffcec5, DUTout: 0xfffffeed, REFout: 0xfffffeed
# PASS: opcode 000000, funct 100110
# 	A: 0xf4007ae8, B: 0xffffcec5, DUTout: 0x0bffb42d, REFout: 0x0bffb42d
# PASS: opcode 001111, funct 100110
# 	A: 0xf4007ae8, B: 0xffffcec5, DUTout: 0xcec50000, REFout: 0xcec50000
# PASS: opcode 000000, funct 000000
# 	A: 0xf4007ae8, B: 0xffffcec5, DUTout: 0x00000000, REFout: 0x00000000
# PASS: opcode 000000, funct 000010
# 	A: 0xf4007ae8, B: 0xffffcec5, DUTout: 0x00000000, REFout: 0x00000000
# PASS: opcode 000000, funct 000011
# 	A: 0xf4007ae8, B: 0xffffcec5, DUTout: 0xffffffce, REFout: 0xffffffce
# PASS: opcode 000000, funct 100111
# 	A: 0xf4007ae8, B: 0xffffcec5, DUTout: 0x00000112, REFout: 0x00000112
# PASS: opcode 100000, funct 100111
# 	A: 0xf4007ae8, B: 0xffffcec5, DUTout: 0xf40049ad, REFout: 0xf40049ad
# PASS: opcode 100001, funct 100111
# 	A: 0xf4007ae8, B: 0xffffcec5, DUTout: 0xf40049ad, REFout: 0xf40049ad
# PASS: opcode 100011, funct 100111
# 	A: 0xf4007ae8, B: 0xffffcec5, DUTout: 0xf40049ad, REFout: 0xf40049ad
# PASS: opcode 100100, funct 100111
# 	A: 0xf4007ae8, B: 0xffffcec5, DUTout: 0xf40049ad, REFout: 0xf40049ad
# PASS: opcode 100101, funct 100111
# 	A: 0xf4007ae8, B: 0xffffcec5, DUTout: 0xf40049ad, REFout: 0xf40049ad
# PASS: opcode 101000, funct 100111
# 	A: 0xf4007ae8, B: 0xffffcec5, DUTout: 0xf40049ad, REFout: 0xf40049ad
# PASS: opcode 101001, funct 100111
# 	A: 0xf4007ae8, B: 0xffffcec5, DUTout: 0xf40049ad, REFout: 0xf40049ad
# PASS: opcode 101011, funct 100111
# 	A: 0xf4007ae8, B: 0xffffcec5, DUTout: 0xf40049ad, REFout: 0xf40049ad
# PASS: opcode 000000, funct 100001
# 	A: 0xde8e28bd, B: 0xffffd82d, DUTout: 0xde8e00ea, REFout: 0xde8e00ea
# PASS: opcode 000000, funct 100011
# 	A: 0xde8e28bd, B: 0xffffd82d, DUTout: 0xde8e5090, REFout: 0xde8e5090
# PASS: opcode 000000, funct 101010
# 	A: 0xde8e28bd, B: 0xffffd82d, DUTout: 0x00000001, REFout: 0x00000001
# PASS: opcode 000000, funct 101011
# 	A: 0xde8e28bd, B: 0xffffd82d, DUTout: 0x00000001, REFout: 0x00000001
# PASS: opcode 000000, funct 100100
# 	A: 0xde8e28bd, B: 0xffffd82d, DUTout: 0xde8e082d, REFout: 0xde8e082d
# PASS: opcode 000000, funct 100101
# 	A: 0xde8e28bd, B: 0xffffd82d, DUTout: 0xfffff8bd, REFout: 0xfffff8bd
# PASS: opcode 000000, funct 100110
# 	A: 0xde8e28bd, B: 0xffffd82d, DUTout: 0x2171f090, REFout: 0x2171f090
# PASS: opcode 001111, funct 100110
# 	A: 0xde8e28bd, B: 0xffffd82d, DUTout: 0xd82d0000, REFout: 0xd82d0000
# PASS: opcode 000000, funct 000000
# 	A: 0xde8e28bd, B: 0xffffd82d, DUTout: 0x00000000, REFout: 0x00000000
# PASS: opcode 000000, funct 000010
# 	A: 0xde8e28bd, B: 0xffffd82d, DUTout: 0x00000000, REFout: 0x00000000
# PASS: opcode 000000, funct 000011
# 	A: 0xde8e28bd, B: 0xffffd82d, DUTout: 0xffffffff, REFout: 0xffffffff
# PASS: opcode 000000, funct 100111
# 	A: 0xde8e28bd, B: 0xffffd82d, DUTout: 0x00000742, REFout: 0x00000742
# PASS: opcode 100000, funct 100111
# 	A: 0xde8e28bd, B: 0xffffd82d, DUTout: 0xde8e00ea, REFout: 0xde8e00ea
# PASS: opcode 100001, funct 100111
# 	A: 0xde8e28bd, B: 0xffffd82d, DUTout: 0xde8e00ea, REFout: 0xde8e00ea
# PASS: opcode 100011, funct 100111
# 	A: 0xde8e28bd, B: 0xffffd82d, DUTout: 0xde8e00ea, REFout: 0xde8e00ea
# PASS: opcode 100100, funct 100111
# 	A: 0xde8e28bd, B: 0xffffd82d, DUTout: 0xde8e00ea, REFout: 0xde8e00ea
# PASS: opcode 100101, funct 100111
# 	A: 0xde8e28bd, B: 0xffffd82d, DUTout: 0xde8e00ea, REFout: 0xde8e00ea
# PASS: opcode 101000, funct 100111
# 	A: 0xde8e28bd, B: 0xffffd82d, DUTout: 0xde8e00ea, REFout: 0xde8e00ea
# PASS: opcode 101001, funct 100111
# 	A: 0xde8e28bd, B: 0xffffd82d, DUTout: 0xde8e00ea, REFout: 0xde8e00ea
# PASS: opcode 101011, funct 100111
# 	A: 0xde8e28bd, B: 0xffffd82d, DUTout: 0xde8e00ea, REFout: 0xde8e00ea
# PASS: opcode 000000, funct 100001
# 	A: 0xb1ef6263, B: 0xffff870a, DUTout: 0xb1eee96d, REFout: 0xb1eee96d
# PASS: opcode 000000, funct 100011
# 	A: 0xb1ef6263, B: 0xffff870a, DUTout: 0xb1efdb59, REFout: 0xb1efdb59
# PASS: opcode 000000, funct 101010
# 	A: 0xb1ef6263, B: 0xffff870a, DUTout: 0x00000001, REFout: 0x00000001
# PASS: opcode 000000, funct 101011
# 	A: 0xb1ef6263, B: 0xffff870a, DUTout: 0x00000001, REFout: 0x00000001
# PASS: opcode 000000, funct 100100
# 	A: 0xb1ef6263, B: 0xffff870a, DUTout: 0xb1ef0202, REFout: 0xb1ef0202
# PASS: opcode 000000, funct 100101
# 	A: 0xb1ef6263, B: 0xffff870a, DUTout: 0xffffe76b, REFout: 0xffffe76b
# PASS: opcode 000000, funct 100110
# 	A: 0xb1ef6263, B: 0xffff870a, DUTout: 0x4e10e569, REFout: 0x4e10e569
# PASS: opcode 001111, funct 100110
# 	A: 0xb1ef6263, B: 0xffff870a, DUTout: 0x870a0000, REFout: 0x870a0000
# PASS: opcode 000000, funct 000000
# 	A: 0xb1ef6263, B: 0xffff870a, DUTout: 0x00000000, REFout: 0x00000000
# PASS: opcode 000000, funct 000010
# 	A: 0xb1ef6263, B: 0xffff870a, DUTout: 0x00000000, REFout: 0x00000000
# PASS: opcode 000000, funct 000011
# 	A: 0xb1ef6263, B: 0xffff870a, DUTout: 0xfffff0e1, REFout: 0xfffff0e1
# PASS: opcode 000000, funct 100111
